{
    "prepare_queue": {
        "installed": [],
        "uninstalled": []
    },
    "config_munge": {
        "files": {
            "config.xml": {
                "parents": {
                    "/*": [
                        {
                            "xml": "<feature name=\"Camera\"><param name=\"ios-package\" value=\"CDVCamera\" /></feature>",
                            "count": 1
                        },
                        {
                            "xml": "<preference name=\"CameraUsesGeolocation\" value=\"false\" />",
                            "count": 1
                        },
                        {
                            "xml": "<feature name=\"SplashScreen\"><param name=\"ios-package\" value=\"CDVSplashScreen\" /><param name=\"onload\" value=\"true\" /></feature>",
                            "count": 1
                        },
                        {
                            "xml": "<feature name=\"Network\"><param name=\"ios-package\" value=\"Network\" /></feature>",
                            "count": 1
                        },
                        {
                            "xml": "<feature name=\"WXPay\"><param name=\"ios-package\" value=\"WXPay\" /></feature>",
                            "count": 1
                        },
                        {
                            "xml": "<feature name=\"Share\"><param name=\"ios-package\" value=\"Share\" /></feature>",
                            "count": 1
                        },
                        {
                            "xml": "<feature name=\"Geolocation\"><param name=\"ios-package\" value=\"CDVLocation\" /></feature>",
                            "count": 1
                        },
                        {
                            "xml": "<feature name=\"Keyboard\"><param name=\"ios-package\" onload=\"true\" value=\"IonicKeyboard\" /></feature>",
                            "count": 1
                        }
                    ],
                    "/widget": [
                        {
                            "xml": "<feature name=\"ChromeSystemMemory\"><param name=\"ios-package\" value=\"ChromeSystemMemory\" /></feature>",
                            "count": 1
                        }
                    ]
                }
            },
            "*-Info.plist": {
                "parents": {
                    "NSLocationWhenInUseUsageDescription": [
                        {
                            "xml": "<string />",
                            "count": 2
                        }
                    ]
                }
            }
        }
    },
    "installed_plugins": {
        "cordova-plugin-camera": {
            "PACKAGE_NAME": "it.maichong.qizhonghui"
        },
        "cordova-plugin-splashscreen": {
            "PACKAGE_NAME": "it.maichong.qizhonghui"
        },
        "cordova-plugin-whitelist": {
            "PACKAGE_NAME": "it.maichong.qizhonghui"
        },
        "it.maichong.plugins.Geo": {
            "PACKAGE_NAME": "it.maichong.qizhonghui"
        },
        "it.maichong.plugins.Network": {
            "PACKAGE_NAME": "it.maichong.qizhonghui"
        },
        "it.maichong.plugins.WXPay": {
            "PACKAGE_NAME": "it.maichong.qizhonghui"
        },
        "it.maichong.plugins.Share": {
            "PACKAGE_NAME": "it.maichong.qizhonghui"
        },
        "cordova-plugin-geolocation": {
            "PACKAGE_NAME": "it.maichong.qizhonghui"
        },
        "cordova-plugin-chrome-apps-system-memory": {
            "PACKAGE_NAME": "it.maichong.qizhonghui"
        },
        "ionic-plugin-keyboard": {
            "PACKAGE_NAME": "it.maichong.qizhonghui"
        }
    },
    "dependent_plugins": {},
    "modules": [
        {
            "file": "plugins/cordova-plugin-camera/www/CameraConstants.js",
            "id": "cordova-plugin-camera.Camera",
            "pluginId": "cordova-plugin-camera",
            "clobbers": [
                "Camera"
            ]
        },
        {
            "file": "plugins/cordova-plugin-camera/www/CameraPopoverOptions.js",
            "id": "cordova-plugin-camera.CameraPopoverOptions",
            "pluginId": "cordova-plugin-camera",
            "clobbers": [
                "CameraPopoverOptions"
            ]
        },
        {
            "file": "plugins/cordova-plugin-camera/www/Camera.js",
            "id": "cordova-plugin-camera.camera",
            "pluginId": "cordova-plugin-camera",
            "clobbers": [
                "navigator.camera"
            ]
        },
        {
            "file": "plugins/cordova-plugin-camera/www/ios/CameraPopoverHandle.js",
            "id": "cordova-plugin-camera.CameraPopoverHandle",
            "pluginId": "cordova-plugin-camera",
            "clobbers": [
                "CameraPopoverHandle"
            ]
        },
        {
            "file": "plugins/cordova-plugin-splashscreen/www/splashscreen.js",
            "id": "cordova-plugin-splashscreen.SplashScreen",
            "pluginId": "cordova-plugin-splashscreen",
            "clobbers": [
                "navigator.splashscreen"
            ]
        },
        {
            "file": "plugins/cordova-plugin-geolocation/www/Coordinates.js",
            "id": "cordova-plugin-geolocation.Coordinates",
            "pluginId": "cordova-plugin-geolocation",
            "clobbers": [
                "Coordinates"
            ]
        },
        {
            "file": "plugins/cordova-plugin-geolocation/www/PositionError.js",
            "id": "cordova-plugin-geolocation.PositionError",
            "pluginId": "cordova-plugin-geolocation",
            "clobbers": [
                "PositionError"
            ]
        },
        {
            "file": "plugins/cordova-plugin-geolocation/www/Position.js",
            "id": "cordova-plugin-geolocation.Position",
            "pluginId": "cordova-plugin-geolocation",
            "clobbers": [
                "Position"
            ]
        },
        {
            "file": "plugins/cordova-plugin-geolocation/www/geolocation.js",
            "id": "cordova-plugin-geolocation.geolocation",
            "pluginId": "cordova-plugin-geolocation",
            "clobbers": [
                "navigator.geolocation"
            ]
        },
        {
            "file": "plugins/cordova-plugin-chrome-apps-system-memory/system.memory.js",
            "id": "cordova-plugin-chrome-apps-system-memory.system.memory",
            "pluginId": "cordova-plugin-chrome-apps-system-memory",
            "clobbers": [
                "chrome.system.memory"
            ]
        },
        {
            "file": "plugins/ionic-plugin-keyboard/www/ios/keyboard.js",
            "id": "ionic-plugin-keyboard.keyboard",
            "pluginId": "ionic-plugin-keyboard",
            "clobbers": [
                "cordova.plugins.Keyboard"
            ],
            "runs": true
        }
    ],
    "plugin_metadata": {
        "cordova-plugin-camera": "2.0.0",
        "cordova-plugin-splashscreen": "3.0.0",
        "cordova-plugin-whitelist": "1.2.0",
        "it.maichong.plugins.Geo": "1.0.0",
        "it.maichong.plugins.Network": "1.0.0",
        "it.maichong.plugins.WXPay": "1.0.0"
    }
}